<svg width="16" height="16" viewBox="0 0 16 16" fill="none" xmlns="http://www.w3.org/2000/svg">
<g clip-path="url(#clip0_7_9327)">
<path fill-rule="evenodd" clip-rule="evenodd" d="M14.5 8C14.5 11.5899 11.5899 14.5 8 14.5C4.41015 14.5 1.5 11.5899 1.5 8C1.5 4.41015 4.41015 1.5 8 1.5C11.5899 1.5 14.5 4.41015 14.5 8ZM16 8C16 12.4183 12.4183 16 8 16C3.58172 16 0 12.4183 0 8C0 3.58172 3.58172 0 8 0C12.4183 0 16 3.58172 16 8ZM6.25 10.5C5.83579 10.5 5.5 10.8358 5.5 11.25C5.5 11.6642 5.83579 12 6.25 12H8H9.75C10.1642 12 10.5 11.6642 10.5 11.25C10.5 10.8358 10.1642 10.5 9.75 10.5H8.75V7.75V7H8H7C6.58579 7 6.25 7.33579 6.25 7.75C6.25 8.16421 6.58579 8.5 7 8.5H7.25V10.5H6.25ZM8 6C8.55229 6 9 5.55228 9 5C9 4.44772 8.55229 4 8 4C7.44772 4 7 4.44772 7 5C7 5.55228 7.44772 6 8 6Z" fill="#1068BF"/>
</g>
<defs>
<clipPath id="clip0_7_9327">
<rect width="16" height="16" fill="white"/>
</clipPath>
</defs>
</svg>
